{
    "/js/admin-module/main.js": "/js/admin-module/main.js",
    "/js/partner-module/main.js": "/js/partner-module/main.js",
    "/js/main.js": "/js/main.js",
    "/css/app.css": "/css/app.css",
    "/css/bootstrap.css": "/css/bootstrap.css",
    "/css/adminlte-app.css": "/css/adminlte-app.css",
    "/css/toastr.css": "/css/toastr.css",
    "/js/app-landing.js": "/js/app-landing.js",
    "/css/all.css": "/css/all.css",
    "/css/all-landing.css": "/css/all-landing.css",
    "/img/app-bg.png": "/img/app-bg.png",
    "/img/arrow1.png": "/img/arrow1.png",
    "/img/arrow2.png": "/img/arrow2.png",
    "/img/intro01.png": "/img/intro01.png",
    "/img/intro02.png": "/img/intro02.png",
    "/img/intro03.png": "/img/intro03.png",
    "/img/item-01.png": "/img/item-01.png",
    "/img/item-02.png": "/img/item-02.png",
    "/img/mobile.png": "/img/mobile.png",
    "/fonts/fontawesome-webfont.eot": "/fonts/fontawesome-webfont.eot",
    "/fonts/fontawesome-webfont.svg": "/fonts/fontawesome-webfont.svg",
    "/fonts/fontawesome-webfont.ttf": "/fonts/fontawesome-webfont.ttf",
    "/fonts/fontawesome-webfont.woff": "/fonts/fontawesome-webfont.woff",
    "/fonts/fontawesome-webfont.woff2": "/fonts/fontawesome-webfont.woff2",
    "/fonts/FontAwesome.otf": "/fonts/FontAwesome.otf",
    "/fonts/ionicons.eot": "/fonts/ionicons.eot",
    "/fonts/ionicons.svg": "/fonts/ionicons.svg",
    "/fonts/ionicons.ttf": "/fonts/ionicons.ttf",
    "/fonts/ionicons.woff": "/fonts/ionicons.woff",
    "/fonts/ionicons.woff2": "/fonts/ionicons.woff2",
    "/css/skins/_all-skins.css": "/css/skins/_all-skins.css",
    "/css/skins/_all-skins.min.css": "/css/skins/_all-skins.min.css",
    "/css/skins/skin-black-light.css": "/css/skins/skin-black-light.css",
    "/css/skins/skin-black-light.min.css": "/css/skins/skin-black-light.min.css",
    "/css/skins/skin-black.css": "/css/skins/skin-black.css",
    "/css/skins/skin-black.min.css": "/css/skins/skin-black.min.css",
    "/css/skins/skin-blue-light.css": "/css/skins/skin-blue-light.css",
    "/css/skins/skin-blue-light.min.css": "/css/skins/skin-blue-light.min.css",
    "/css/skins/skin-blue.css": "/css/skins/skin-blue.css",
    "/css/skins/skin-blue.min.css": "/css/skins/skin-blue.min.css",
    "/css/skins/skin-green-light.css": "/css/skins/skin-green-light.css",
    "/css/skins/skin-green-light.min.css": "/css/skins/skin-green-light.min.css",
    "/css/skins/skin-green.css": "/css/skins/skin-green.css",
    "/css/skins/skin-green.min.css": "/css/skins/skin-green.min.css",
    "/css/skins/skin-purple-light.css": "/css/skins/skin-purple-light.css",
    "/css/skins/skin-purple-light.min.css": "/css/skins/skin-purple-light.min.css",
    "/css/skins/skin-purple.css": "/css/skins/skin-purple.css",
    "/css/skins/skin-purple.min.css": "/css/skins/skin-purple.min.css",
    "/css/skins/skin-red-light.css": "/css/skins/skin-red-light.css",
    "/css/skins/skin-red-light.min.css": "/css/skins/skin-red-light.min.css",
    "/css/skins/skin-red.css": "/css/skins/skin-red.css",
    "/css/skins/skin-red.min.css": "/css/skins/skin-red.min.css",
    "/css/skins/skin-yellow-light.css": "/css/skins/skin-yellow-light.css",
    "/css/skins/skin-yellow-light.min.css": "/css/skins/skin-yellow-light.min.css",
    "/css/skins/skin-yellow.css": "/css/skins/skin-yellow.css",
    "/css/skins/skin-yellow.min.css": "/css/skins/skin-yellow.min.css",
    "/css/blue.png": "/css/blue.png",
    "/css/blue@2x.png": "/css/blue@2x.png"
}